
#ifdef MINBIAS
pT     = 400;
#else
pT     = 1000;
#endif

eta    = 2.5;
#if defined(LARGED0)
	a0=10;
#elif defined(LARGED0_EL)
	a0=4.;
#elif defined(LRT)
  a0=200.;
#else
	a0=3.;
#endif
// npix   = 1;
// nsct   = 2;
npix   = -1;
nsct   = -1;

pT_rec  = 0;
eta_rec = 5;
Rmatch = 0.05;


#if defined(LRT)
	a0v = 200.;
	z0v = 100.;
#else
	a0v = 10.5;
	z0v = 10.5;
#endif
